<svg width="29" height="34" viewBox="0 0 29 34" fill="none" xmlns="http://www.w3.org/2000/svg">
<path d="M25.6536 24.8502C24.8795 25.1317 23.6128 25.4836 22.2405 25.765C21.7479 26.5743 20.8331 27.2429 19.4256 27.5244C19.1089 27.5947 18.7219 27.6299 18.3348 27.6299C17.3496 27.6651 16.1884 27.5596 14.9217 27.454C14.8513 27.454 14.7458 27.454 14.6754 27.4188C14.3587 27.3836 14.0772 27.1373 14.0772 26.8558C14.0421 26.4688 14.3587 26.1521 14.7458 26.1873C14.8513 26.1873 14.9569 26.1873 15.0625 26.2225C16.7162 26.3632 18.2644 26.504 19.2497 26.328C21.0794 25.9762 21.572 24.8854 21.4664 23.9353C21.3609 23.1612 20.7979 22.4575 19.9182 22.4927C18.6163 22.5983 17.1385 22.4927 15.6606 22.3871C13.9717 22.2816 12.2475 22.2112 11.0512 22.352C9.67893 22.4927 6.93438 23.5131 4.47132 25.1669C3.27498 25.9762 1.93789 26.9262 1.1286 27.5244C0.706358 27.8411 0.635985 28.404 0.952664 28.7911L4.50651 33.4005C4.82318 33.7876 5.38617 33.8579 5.77322 33.5765L7.07512 32.556C7.3918 32.3097 7.77885 32.2394 8.1659 32.3449C10.5586 33.119 13.092 33.6116 14.7458 33.682C18.37 33.858 25.3721 29.5652 27.3778 28.1929C29.313 26.8206 27.8704 24.0409 25.6536 24.8502Z" fill="#43A4E1"/>
<path d="M7.46057 3.73829C7.56613 3.80866 7.60131 3.94941 7.56613 4.09016L7.24945 5.49762C7.17908 5.8143 7.49575 6.02542 7.77725 5.88467L9.00878 5.14575C9.11434 5.07538 9.25508 5.07538 9.36064 5.14575L10.5922 5.88467C10.8737 6.0606 11.1903 5.8143 11.12 5.49762L10.8033 4.09016C10.7681 3.94941 10.8033 3.84385 10.9088 3.73829L11.9996 2.78825C12.2459 2.57713 12.1052 2.19008 11.7885 2.19008L10.3459 2.08452C10.2051 2.08452 10.0996 1.97896 10.0644 1.8734L9.50139 0.536315C9.39583 0.254822 8.97359 0.254822 8.86803 0.536315L8.30505 1.8734C8.26986 1.97896 8.12911 2.08452 8.02355 2.08452L6.5809 2.19008C6.26423 2.22527 6.15867 2.61232 6.36979 2.78825L7.46057 3.73829Z" fill="#43A4E1"/>
<path d="M14.7095 4.82909H25.4414C26.1099 4.82909 26.6377 4.30129 26.6377 3.63274C26.6377 2.9642 26.1099 2.4364 25.4414 2.4364H14.7095C14.0409 2.4364 13.5131 2.9642 13.5131 3.63274C13.5131 4.30129 14.0409 4.82909 14.7095 4.82909Z" fill="#43A4E1"/>
<path d="M7.46057 10.4941C7.56613 10.5645 7.60131 10.7052 7.56613 10.846L7.24945 12.2534C7.17908 12.5701 7.49575 12.7812 7.77725 12.6405L9.00878 11.9016C9.11434 11.8312 9.25508 11.8312 9.36064 11.9016L10.5922 12.6405C10.8737 12.8164 11.1903 12.5701 11.12 12.2534L10.8033 10.846C10.7681 10.7052 10.8033 10.5996 10.9088 10.4941L11.9996 9.54405C12.2459 9.33293 12.1052 8.94588 11.7885 8.94588L10.3459 8.84032C10.2051 8.84032 10.0996 8.73476 10.0644 8.6292L9.50139 7.29211C9.39583 7.01062 8.97359 7.01062 8.86803 7.29211L8.30505 8.6292C8.26986 8.73476 8.12911 8.84032 8.02355 8.84032L6.5809 8.94588C6.26423 8.98107 6.15867 9.36812 6.36979 9.54405L7.46057 10.4941Z" fill="#43A4E1"/>
<path d="M14.7095 11.5849H25.4414C26.1099 11.5849 26.6377 11.0571 26.6377 10.3885C26.6377 9.72 26.1099 9.1922 25.4414 9.1922H14.7095C14.0409 9.1922 13.5131 9.72 13.5131 10.3885C13.5131 11.0571 14.0409 11.5849 14.7095 11.5849Z" fill="#43A4E1"/>
<path d="M7.46057 17.2499C7.56613 17.3203 7.60131 17.4611 7.56613 17.6018L7.24945 19.0093C7.17908 19.326 7.49575 19.5371 7.77725 19.3963L9.00878 18.6574C9.11434 18.587 9.25508 18.587 9.36064 18.6574L10.5922 19.3963C10.8737 19.5723 11.1903 19.326 11.12 19.0093L10.8033 17.6018C10.7681 17.4611 10.8033 17.3555 10.9088 17.2499L11.9996 16.2999C12.2459 16.0888 12.1052 15.7017 11.7885 15.7017L10.3459 15.5962C10.2051 15.5962 10.0996 15.4906 10.0644 15.3851L9.50139 14.048C9.39583 13.7665 8.97359 13.7665 8.86803 14.048L8.30505 15.3851C8.26986 15.4906 8.12911 15.5962 8.02355 15.5962L6.5809 15.7017C6.26423 15.7369 6.15867 16.124 6.36979 16.2999L7.46057 17.2499Z" fill="#43A4E1"/>
<path d="M14.7095 18.3407H25.4414C26.1099 18.3407 26.6377 17.8129 26.6377 17.1444C26.6377 16.4758 26.0747 15.9832 25.4414 15.9832H14.7095C14.0409 15.9832 13.5131 16.511 13.5131 17.1796C13.5131 17.8481 14.0409 18.3407 14.7095 18.3407Z" fill="#43A4E1"/>
</svg>
